{
	"label": "Abilities: Cleric",
	"mapping": {
        "description": "system.description",
        "requirements": "system.requirements"
    },
	"entries": {
		"After Reaching 9th Level": {
			"name": "升至9級後",
			"description": "<p style='box-sizing: border-box; user-select: text; color: #191813;'>牧師可以修復或搭建據點。只要牧師仍受到神明恩寵，那麼通過神力干預來購買或建造據點只需要正常價格的一半。</p> <p style='box-sizing: border-box; user-select: text; color: #191813;'>一旦據點建造完成，牧師就會開始吸引追隨者（5d6×10名1–2級的戰士）。這些部隊會全心全意地效力於牧師，無需檢定士氣。裁判決定這些追隨者哪些是1級，哪些是2級，以及各自的具體職能，例如弓箭手、步兵等等。</p>",
        	"requirements": "牧師, 9 級"
		},
		"Cleric Level Progression": {
			"name": "牧師等級進度",
			"description": "<table style='height: 272px; border-color: #000000;' border='1px' cellpadding='8px'> <thead style='box-sizing: border-box; user-select: text;'> <tr style='box-sizing: border-box; user-select: text; height: 17px;'> <td style='box-sizing: border-box; user-select: text; padding: 8px; border: none; text-align: center; width: 72px; height: 17px; background-color: #696863;' scope='col'>&nbsp;</td> <td style='box-sizing: border-box; user-select: text; padding: 8px; border: none; text-align: center; width: 104px; height: 17px; background-color: #696863;' scope='col'>&nbsp;</td> <td style='box-sizing: border-box; user-select: text; padding: 8px; border: none; text-align: center; width: 95px; height: 17px; background-color: #696863;' scope='col'>&nbsp;</td> <td style='box-sizing: border-box; user-select: text; padding: 8px; border: none; text-align: center; width: 3em; height: 17px; background-color: #696863;' scope='col'>&nbsp;</td> <td style='box-sizing: border-box; user-select: text; padding: 8px; border: none; width: 2em; height: 17px; background-color: #505050; text-align: center;' colspan='5' scope='col'><strong style='box-sizing: border-box; user-select: text;'>豁免</strong></td> <td style='box-sizing: border-box; user-select: text; padding: 8px; border: none; text-align: center; width: 1em; height: 17px; background-color: #696863;' colspan='5' scope='col'><strong style='box-sizing: border-box; user-select: text;'>法術</strong></td> </tr> <tr style='box-sizing: border-box; user-select: text; height: 17px;'> <td style='box-sizing: border-box; user-select: text; padding: 8px; border: none; text-align: center; width: 72px; height: 17px; background-color: #696863;' scope='col'><strong style='box-sizing: border-box; user-select: text;'>Level</strong></td> <td style='box-sizing: border-box; user-select: text; padding: 8px; border: none; text-align: center; width: 104px; height: 17px; background-color: #696863;' scope='col'><strong style='box-sizing: border-box; user-select: text;'>XP</strong></td> <td style='box-sizing: border-box; user-select: text; padding: 8px; border: none; text-align: center; width: 95px; height: 17px; background-color: #696863;' scope='col'><strong style='box-sizing: border-box; user-select: text;'>HD</strong></td> <td style='box-sizing: border-box; user-select: text; padding: 8px; border: none; text-align: center; width: 3em; height: 17px; background-color: #696863;' scope='col'><strong style='box-sizing: border-box; user-select: text;'>THAC0</strong></td> <td style='box-sizing: border-box; user-select: text; padding: 8px; border: none; text-align: center; width: 2em; height: 17px; background-color: #505050;' scope='col'><strong style='box-sizing: border-box; user-select: text;'>D</strong></td> <td style='box-sizing: border-box; user-select: text; padding: 8px; border: none; text-align: center; width: 2em; height: 17px; background-color: #505050;' scope='col'><strong style='box-sizing: border-box; user-select: text;'>W</strong></td> <td style='box-sizing: border-box; user-select: text; padding: 8px; border: none; text-align: center; width: 2em; height: 17px; background-color: #505050;' scope='col'><strong style='box-sizing: border-box; user-select: text;'>P</strong></td> <td style='box-sizing: border-box; user-select: text; padding: 8px; border: none; text-align: center; width: 2em; height: 17px; background-color: #505050;' scope='col'><strong style='box-sizing: border-box; user-select: text;'>B</strong></td> <td style='box-sizing: border-box; user-select: text; padding: 8px; border: none; text-align: center; width: 2em; height: 17px; background-color: #505050;' scope='col'><strong style='box-sizing: border-box; user-select: text;'>S</strong></td> <td style='box-sizing: border-box; user-select: text; padding: 8px; border: none; text-align: center; width: 1em; height: 17px; background-color: #696863;' scope='col'><strong style='box-sizing: border-box; user-select: text;'>1</strong></td> <td style='box-sizing: border-box; user-select: text; padding: 8px; border: none; text-align: center; width: 1em; height: 17px; background-color: #696863;' scope='col'><strong style='box-sizing: border-box; user-select: text;'>2</strong></td> <td style='box-sizing: border-box; user-select: text; padding: 8px; border: none; text-align: center; width: 1em; height: 17px; background-color: #696863;' scope='col'><strong style='box-sizing: border-box; user-select: text;'>3</strong></td> <td style='box-sizing: border-box; user-select: text; padding: 8px; border: none; text-align: center; width: 1em; height: 17px; background-color: #696863;' scope='col'><strong style='box-sizing: border-box; user-select: text;'>4</strong></td> <td style='box-sizing: border-box; user-select: text; padding: 8px; border: none; text-align: center; width: 1em; height: 17px; background-color: #696863;' scope='col'><strong style='box-sizing: border-box; user-select: text;'>5</strong></td> </tr> </thead> <tbody style='box-sizing: border-box; user-select: text;'> <tr style='box-sizing: border-box; user-select: text; height: 17px;'> <td style='box-sizing: border-box; user-select: text; padding: 8px; border: none; width: 72px; height: 17px; text-align: center;'>1</td> <td style='box-sizing: border-box; user-select: text; padding: 8px; border: none; width: 104px; height: 17px; text-align: center;'>0</td> <td style='box-sizing: border-box; user-select: text; padding: 8px; border: none; width: 95px; height: 17px; text-align: center;'>1d6</td> <td style='box-sizing: border-box; user-select: text; padding: 8px; border: none; width: 3em; height: 17px; text-align: center;'>19 [0]</td> <td style='box-sizing: border-box; user-select: text; padding: 8px; border: none; width: 2em; height: 17px; text-align: center;'>11</td> <td style='box-sizing: border-box; user-select: text; padding: 8px; border: none; width: 2em; height: 17px; text-align: center;'>12</td> <td style='box-sizing: border-box; user-select: text; padding: 8px; border: none; width: 2em; height: 17px; text-align: center;'>14</td> <td style='box-sizing: border-box; user-select: text; padding: 8px; border: none; width: 2em; height: 17px; text-align: center;'>16</td> <td style='box-sizing: border-box; user-select: text; padding: 8px; border: none; width: 2em; height: 17px; text-align: center;'>15</td> <td style='box-sizing: border-box; user-select: text; padding: 8px; border: none; width: 1em; height: 17px; text-align: center;'>&ndash;</td> <td style='box-sizing: border-box; user-select: text; padding: 8px; border: none; width: 1em; height: 17px; text-align: center;'>&ndash;</td> <td style='box-sizing: border-box; user-select: text; padding: 8px; border: none; width: 1em; height: 17px; text-align: center;'>&ndash;</td> <td style='box-sizing: border-box; user-select: text; padding: 8px; border: none; width: 1em; height: 17px; text-align: center;'>&ndash;</td> <td style='box-sizing: border-box; user-select: text; padding: 8px; border: none; width: 1em; height: 17px; text-align: center;'>&ndash;</td> </tr> <tr style='box-sizing: border-box; user-select: text; height: 17px;'> <td style='box-sizing: border-box; user-select: text; padding: 8px; border: none; width: 72px; height: 17px; text-align: center;'>2</td> <td style='box-sizing: border-box; user-select: text; padding: 8px; border: none; width: 104px; height: 17px; text-align: center;'>1,500</td> <td style='box-sizing: border-box; user-select: text; padding: 8px; border: none; width: 95px; height: 17px; text-align: center;'>2d6</td> <td style='box-sizing: border-box; user-select: text; padding: 8px; border: none; width: 3em; height: 17px; text-align: center;'>19 [0]</td> <td style='box-sizing: border-box; user-select: text; padding: 8px; border: none; width: 2em; height: 17px; text-align: center;'>11</td> <td style='box-sizing: border-box; user-select: text; padding: 8px; border: none; width: 2em; height: 17px; text-align: center;'>12</td> <td style='box-sizing: border-box; user-select: text; padding: 8px; border: none; width: 2em; height: 17px; text-align: center;'>14</td> <td style='box-sizing: border-box; user-select: text; padding: 8px; border: none; width: 2em; height: 17px; text-align: center;'>16</td> <td style='box-sizing: border-box; user-select: text; padding: 8px; border: none; width: 2em; height: 17px; text-align: center;'>15</td> <td style='box-sizing: border-box; user-select: text; padding: 8px; border: none; width: 1em; height: 17px; text-align: center;'>1</td> <td style='box-sizing: border-box; user-select: text; padding: 8px; border: none; width: 1em; height: 17px; text-align: center;'>&ndash;</td> <td style='box-sizing: border-box; user-select: text; padding: 8px; border: none; width: 1em; height: 17px; text-align: center;'>&ndash;</td> <td style='box-sizing: border-box; user-select: text; padding: 8px; border: none; width: 1em; height: 17px; text-align: center;'>&ndash;</td> <td style='box-sizing: border-box; user-select: text; padding: 8px; border: none; width: 1em; height: 17px; text-align: center;'>&ndash;</td> </tr> <tr style='box-sizing: border-box; user-select: text; height: 17px;'> <td style='box-sizing: border-box; user-select: text; padding: 8px; border: none; width: 72px; height: 17px; text-align: center;'>3</td> <td style='box-sizing: border-box; user-select: text; padding: 8px; border: none; width: 104px; height: 17px; text-align: center;'>3,000</td> <td style='box-sizing: border-box; user-select: text; padding: 8px; border: none; width: 95px; height: 17px; text-align: center;'>3d6</td> <td style='box-sizing: border-box; user-select: text; padding: 8px; border: none; width: 3em; height: 17px; text-align: center;'>19 [0]</td> <td style='box-sizing: border-box; user-select: text; padding: 8px; border: none; width: 2em; height: 17px; text-align: center;'>11</td> <td style='box-sizing: border-box; user-select: text; padding: 8px; border: none; width: 2em; height: 17px; text-align: center;'>12</td> <td style='box-sizing: border-box; user-select: text; padding: 8px; border: none; width: 2em; height: 17px; text-align: center;'>14</td> <td style='box-sizing: border-box; user-select: text; padding: 8px; border: none; width: 2em; height: 17px; text-align: center;'>16</td> <td style='box-sizing: border-box; user-select: text; padding: 8px; border: none; width: 2em; height: 17px; text-align: center;'>15</td> <td style='box-sizing: border-box; user-select: text; padding: 8px; border: none; width: 1em; height: 17px; text-align: center;'>2</td> <td style='box-sizing: border-box; user-select: text; padding: 8px; border: none; width: 1em; height: 17px; text-align: center;'>&ndash;</td> <td style='box-sizing: border-box; user-select: text; padding: 8px; border: none; width: 1em; height: 17px; text-align: center;'>&ndash;</td> <td style='box-sizing: border-box; user-select: text; padding: 8px; border: none; width: 1em; height: 17px; text-align: center;'>&ndash;</td> <td style='box-sizing: border-box; user-select: text; padding: 8px; border: none; width: 1em; height: 17px; text-align: center;'>&ndash;</td> </tr> <tr style='box-sizing: border-box; user-select: text; height: 17px;'> <td style='box-sizing: border-box; user-select: text; padding: 8px; border: none; width: 72px; height: 17px; text-align: center;'>4</td> <td style='box-sizing: border-box; user-select: text; padding: 8px; border: none; width: 104px; height: 17px; text-align: center;'>6,000</td> <td style='box-sizing: border-box; user-select: text; padding: 8px; border: none; width: 95px; height: 17px; text-align: center;'>4d6</td> <td style='box-sizing: border-box; user-select: text; padding: 8px; border: none; width: 3em; height: 17px; text-align: center;'>19 [0]</td> <td style='box-sizing: border-box; user-select: text; padding: 8px; border: none; width: 2em; height: 17px; text-align: center;'>11</td> <td style='box-sizing: border-box; user-select: text; padding: 8px; border: none; width: 2em; height: 17px; text-align: center;'>12</td> <td style='box-sizing: border-box; user-select: text; padding: 8px; border: none; width: 2em; height: 17px; text-align: center;'>14</td> <td style='box-sizing: border-box; user-select: text; padding: 8px; border: none; width: 2em; height: 17px; text-align: center;'>16</td> <td style='box-sizing: border-box; user-select: text; padding: 8px; border: none; width: 2em; height: 17px; text-align: center;'>15</td> <td style='box-sizing: border-box; user-select: text; padding: 8px; border: none; width: 1em; height: 17px; text-align: center;'>2</td> <td style='box-sizing: border-box; user-select: text; padding: 8px; border: none; width: 1em; height: 17px; text-align: center;'>1</td> <td style='box-sizing: border-box; user-select: text; padding: 8px; border: none; width: 1em; height: 17px; text-align: center;'>&ndash;</td> <td style='box-sizing: border-box; user-select: text; padding: 8px; border: none; width: 1em; height: 17px; text-align: center;'>&ndash;</td> <td style='box-sizing: border-box; user-select: text; padding: 8px; border: none; width: 1em; height: 17px; text-align: center;'>&ndash;</td> </tr> <tr style='box-sizing: border-box; user-select: text; height: 17px;'> <td style='box-sizing: border-box; user-select: text; padding: 8px; border: none; width: 72px; height: 17px; text-align: center;'>5</td> <td style='box-sizing: border-box; user-select: text; padding: 8px; border: none; width: 104px; height: 17px; text-align: center;'>12,000</td> <td style='box-sizing: border-box; user-select: text; padding: 8px; border: none; width: 95px; height: 17px; text-align: center;'>5d6</td> <td style='box-sizing: border-box; user-select: text; padding: 8px; border: none; width: 3em; height: 17px; text-align: center;'>17 [+2]</td> <td style='box-sizing: border-box; user-select: text; padding: 8px; border: none; width: 2em; height: 17px; text-align: center;'>9</td> <td style='box-sizing: border-box; user-select: text; padding: 8px; border: none; width: 2em; height: 17px; text-align: center;'>10</td> <td style='box-sizing: border-box; user-select: text; padding: 8px; border: none; width: 2em; height: 17px; text-align: center;'>12</td> <td style='box-sizing: border-box; user-select: text; padding: 8px; border: none; width: 2em; height: 17px; text-align: center;'>14</td> <td style='box-sizing: border-box; user-select: text; padding: 8px; border: none; width: 2em; height: 17px; text-align: center;'>12</td> <td style='box-sizing: border-box; user-select: text; padding: 8px; border: none; width: 1em; height: 17px; text-align: center;'>2</td> <td style='box-sizing: border-box; user-select: text; padding: 8px; border: none; width: 1em; height: 17px; text-align: center;'>2</td> <td style='box-sizing: border-box; user-select: text; padding: 8px; border: none; width: 1em; height: 17px; text-align: center;'>&ndash;</td> <td style='box-sizing: border-box; user-select: text; padding: 8px; border: none; width: 1em; height: 17px; text-align: center;'>&ndash;</td> <td style='box-sizing: border-box; user-select: text; padding: 8px; border: none; width: 1em; height: 17px; text-align: center;'>&ndash;</td> </tr> <tr style='box-sizing: border-box; user-select: text; height: 17px;'> <td style='box-sizing: border-box; user-select: text; padding: 8px; border: none; width: 72px; height: 17px; text-align: center;'>6</td> <td style='box-sizing: border-box; user-select: text; padding: 8px; border: none; width: 104px; height: 17px; text-align: center;'>25,000</td> <td style='box-sizing: border-box; user-select: text; padding: 8px; border: none; width: 95px; height: 17px; text-align: center;'>6d6</td> <td style='box-sizing: border-box; user-select: text; padding: 8px; border: none; width: 3em; height: 17px; text-align: center;'>17 [+2]</td> <td style='box-sizing: border-box; user-select: text; padding: 8px; border: none; width: 2em; height: 17px; text-align: center;'>9</td> <td style='box-sizing: border-box; user-select: text; padding: 8px; border: none; width: 2em; height: 17px; text-align: center;'>10</td> <td style='box-sizing: border-box; user-select: text; padding: 8px; border: none; width: 2em; height: 17px; text-align: center;'>12</td> <td style='box-sizing: border-box; user-select: text; padding: 8px; border: none; width: 2em; height: 17px; text-align: center;'>14</td> <td style='box-sizing: border-box; user-select: text; padding: 8px; border: none; width: 2em; height: 17px; text-align: center;'>12</td> <td style='box-sizing: border-box; user-select: text; padding: 8px; border: none; width: 1em; height: 17px; text-align: center;'>2</td> <td style='box-sizing: border-box; user-select: text; padding: 8px; border: none; width: 1em; height: 17px; text-align: center;'>2</td> <td style='box-sizing: border-box; user-select: text; padding: 8px; border: none; width: 1em; height: 17px; text-align: center;'>1</td> <td style='box-sizing: border-box; user-select: text; padding: 8px; border: none; width: 1em; height: 17px; text-align: center;'>1</td> <td style='box-sizing: border-box; user-select: text; padding: 8px; border: none; width: 1em; height: 17px; text-align: center;'>&ndash;</td> </tr> <tr style='box-sizing: border-box; user-select: text; height: 17px;'> <td style='box-sizing: border-box; user-select: text; padding: 8px; border: none; width: 72px; height: 17px; text-align: center;'>7</td> <td style='box-sizing: border-box; user-select: text; padding: 8px; border: none; width: 104px; height: 17px; text-align: center;'>50,000</td> <td style='box-sizing: border-box; user-select: text; padding: 8px; border: none; width: 95px; height: 17px; text-align: center;'>7d6</td> <td style='box-sizing: border-box; user-select: text; padding: 8px; border: none; width: 3em; height: 17px; text-align: center;'>17 [+2]</td> <td style='box-sizing: border-box; user-select: text; padding: 8px; border: none; width: 2em; height: 17px; text-align: center;'>9</td> <td style='box-sizing: border-box; user-select: text; padding: 8px; border: none; width: 2em; height: 17px; text-align: center;'>10</td> <td style='box-sizing: border-box; user-select: text; padding: 8px; border: none; width: 2em; height: 17px; text-align: center;'>12</td> <td style='box-sizing: border-box; user-select: text; padding: 8px; border: none; width: 2em; height: 17px; text-align: center;'>14</td> <td style='box-sizing: border-box; user-select: text; padding: 8px; border: none; width: 2em; height: 17px; text-align: center;'>12</td> <td style='box-sizing: border-box; user-select: text; padding: 8px; border: none; width: 1em; height: 17px; text-align: center;'>2</td> <td style='box-sizing: border-box; user-select: text; padding: 8px; border: none; width: 1em; height: 17px; text-align: center;'>2</td> <td style='box-sizing: border-box; user-select: text; padding: 8px; border: none; width: 1em; height: 17px; text-align: center;'>2</td> <td style='box-sizing: border-box; user-select: text; padding: 8px; border: none; width: 1em; height: 17px; text-align: center;'>1</td> <td style='box-sizing: border-box; user-select: text; padding: 8px; border: none; width: 1em; height: 17px; text-align: center;'>1</td> </tr> <tr style='box-sizing: border-box; user-select: text; height: 17px;'> <td style='box-sizing: border-box; user-select: text; padding: 8px; border: none; width: 72px; height: 17px; text-align: center;'>8</td> <td style='box-sizing: border-box; user-select: text; padding: 8px; border: none; width: 104px; height: 17px; text-align: center;'>100,000</td> <td style='box-sizing: border-box; user-select: text; padding: 8px; border: none; width: 95px; height: 17px; text-align: center;'>8d6</td> <td style='box-sizing: border-box; user-select: text; padding: 8px; border: none; width: 3em; height: 17px; text-align: center;'>17 [+2]</td> <td style='box-sizing: border-box; user-select: text; padding: 8px; border: none; width: 2em; height: 17px; text-align: center;'>9</td> <td style='box-sizing: border-box; user-select: text; padding: 8px; border: none; width: 2em; height: 17px; text-align: center;'>10</td> <td style='box-sizing: border-box; user-select: text; padding: 8px; border: none; width: 2em; height: 17px; text-align: center;'>12</td> <td style='box-sizing: border-box; user-select: text; padding: 8px; border: none; width: 2em; height: 17px; text-align: center;'>14</td> <td style='box-sizing: border-box; user-select: text; padding: 8px; border: none; width: 2em; height: 17px; text-align: center;'>12</td> <td style='box-sizing: border-box; user-select: text; padding: 8px; border: none; width: 1em; height: 17px; text-align: center;'>3</td> <td style='box-sizing: border-box; user-select: text; padding: 8px; border: none; width: 1em; height: 17px; text-align: center;'>3</td> <td style='box-sizing: border-box; user-select: text; padding: 8px; border: none; width: 1em; height: 17px; text-align: center;'>2</td> <td style='box-sizing: border-box; user-select: text; padding: 8px; border: none; width: 1em; height: 17px; text-align: center;'>2</td> <td style='box-sizing: border-box; user-select: text; padding: 8px; border: none; width: 1em; height: 17px; text-align: center;'>1</td> </tr> <tr style='box-sizing: border-box; user-select: text; height: 17px;'> <td style='box-sizing: border-box; user-select: text; padding: 8px; border: none; width: 72px; height: 17px; text-align: center;'>9</td> <td style='box-sizing: border-box; user-select: text; padding: 8px; border: none; width: 104px; height: 17px; text-align: center;'>200,000</td> <td style='box-sizing: border-box; user-select: text; padding: 8px; border: none; width: 95px; height: 17px; text-align: center;'>9d6</td> <td style='box-sizing: border-box; user-select: text; padding: 8px; border: none; width: 3em; height: 17px; text-align: center;'>14 [+5]</td> <td style='box-sizing: border-box; user-select: text; padding: 8px; border: none; width: 2em; height: 17px; text-align: center;'>6</td> <td style='box-sizing: border-box; user-select: text; padding: 8px; border: none; width: 2em; height: 17px; text-align: center;'>7</td> <td style='box-sizing: border-box; user-select: text; padding: 8px; border: none; width: 2em; height: 17px; text-align: center;'>9</td> <td style='box-sizing: border-box; user-select: text; padding: 8px; border: none; width: 2em; height: 17px; text-align: center;'>11</td> <td style='box-sizing: border-box; user-select: text; padding: 8px; border: none; width: 2em; height: 17px; text-align: center;'>9</td> <td style='box-sizing: border-box; user-select: text; padding: 8px; border: none; width: 1em; height: 17px; text-align: center;'>3</td> <td style='box-sizing: border-box; user-select: text; padding: 8px; border: none; width: 1em; height: 17px; text-align: center;'>3</td> <td style='box-sizing: border-box; user-select: text; padding: 8px; border: none; width: 1em; height: 17px; text-align: center;'>3</td> <td style='box-sizing: border-box; user-select: text; padding: 8px; border: none; width: 1em; height: 17px; text-align: center;'>2</td> <td style='box-sizing: border-box; user-select: text; padding: 8px; border: none; width: 1em; height: 17px; text-align: center;'>2</td> </tr> <tr style='box-sizing: border-box; user-select: text; height: 17px;'> <td style='box-sizing: border-box; user-select: text; padding: 8px; border: none; width: 72px; height: 17px; text-align: center;'>10</td> <td style='box-sizing: border-box; user-select: text; padding: 8px; border: none; width: 104px; height: 17px; text-align: center;'>300,000</td> <td style='box-sizing: border-box; user-select: text; padding: 8px; border: none; width: 95px; height: 17px; text-align: center;'>9d6+1*</td> <td style='box-sizing: border-box; user-select: text; padding: 8px; border: none; width: 3em; height: 17px; text-align: center;'>14 [+5]</td> <td style='box-sizing: border-box; user-select: text; padding: 8px; border: none; width: 2em; height: 17px; text-align: center;'>6</td> <td style='box-sizing: border-box; user-select: text; padding: 8px; border: none; width: 2em; height: 17px; text-align: center;'>7</td> <td style='box-sizing: border-box; user-select: text; padding: 8px; border: none; width: 2em; height: 17px; text-align: center;'>9</td> <td style='box-sizing: border-box; user-select: text; padding: 8px; border: none; width: 2em; height: 17px; text-align: center;'>11</td> <td style='box-sizing: border-box; user-select: text; padding: 8px; border: none; width: 2em; height: 17px; text-align: center;'>9</td> <td style='box-sizing: border-box; user-select: text; padding: 8px; border: none; width: 1em; height: 17px; text-align: center;'>4</td> <td style='box-sizing: border-box; user-select: text; padding: 8px; border: none; width: 1em; height: 17px; text-align: center;'>4</td> <td style='box-sizing: border-box; user-select: text; padding: 8px; border: none; width: 1em; height: 17px; text-align: center;'>3</td> <td style='box-sizing: border-box; user-select: text; padding: 8px; border: none; width: 1em; height: 17px; text-align: center;'>3</td> <td style='box-sizing: border-box; user-select: text; padding: 8px; border: none; width: 1em; height: 17px; text-align: center;'>2</td> </tr> <tr style='box-sizing: border-box; user-select: text; height: 17px;'> <td style='box-sizing: border-box; user-select: text; padding: 8px; border: none; width: 72px; height: 17px; text-align: center;'>11</td> <td style='box-sizing: border-box; user-select: text; padding: 8px; border: none; width: 104px; height: 17px; text-align: center;'>400,000</td> <td style='box-sizing: border-box; user-select: text; padding: 8px; border: none; width: 95px; height: 17px; text-align: center;'>9d6+2*</td> <td style='box-sizing: border-box; user-select: text; padding: 8px; border: none; width: 3em; height: 17px; text-align: center;'>14 [+5]</td> <td style='box-sizing: border-box; user-select: text; padding: 8px; border: none; width: 2em; height: 17px; text-align: center;'>6</td> <td style='box-sizing: border-box; user-select: text; padding: 8px; border: none; width: 2em; height: 17px; text-align: center;'>7</td> <td style='box-sizing: border-box; user-select: text; padding: 8px; border: none; width: 2em; height: 17px; text-align: center;'>9</td> <td style='box-sizing: border-box; user-select: text; padding: 8px; border: none; width: 2em; height: 17px; text-align: center;'>11</td> <td style='box-sizing: border-box; user-select: text; padding: 8px; border: none; width: 2em; height: 17px; text-align: center;'>9</td> <td style='box-sizing: border-box; user-select: text; padding: 8px; border: none; width: 1em; height: 17px; text-align: center;'>4</td> <td style='box-sizing: border-box; user-select: text; padding: 8px; border: none; width: 1em; height: 17px; text-align: center;'>4</td> <td style='box-sizing: border-box; user-select: text; padding: 8px; border: none; width: 1em; height: 17px; text-align: center;'>4</td> <td style='box-sizing: border-box; user-select: text; padding: 8px; border: none; width: 1em; height: 17px; text-align: center;'>3</td> <td style='box-sizing: border-box; user-select: text; padding: 8px; border: none; width: 1em; height: 17px; text-align: center;'>3</td> </tr> <tr style='box-sizing: border-box; user-select: text; height: 17px;'> <td style='box-sizing: border-box; user-select: text; padding: 8px; border: none; width: 72px; height: 17px; text-align: center;'>12</td> <td style='box-sizing: border-box; user-select: text; padding: 8px; border: none; width: 104px; height: 17px; text-align: center;'>500,000</td> <td style='box-sizing: border-box; user-select: text; padding: 8px; border: none; width: 95px; height: 17px; text-align: center;'>9d6+3*</td> <td style='box-sizing: border-box; user-select: text; padding: 8px; border: none; width: 3em; height: 17px; text-align: center;'>14 [+5]</td> <td style='box-sizing: border-box; user-select: text; padding: 8px; border: none; width: 2em; height: 17px; text-align: center;'>6</td> <td style='box-sizing: border-box; user-select: text; padding: 8px; border: none; width: 2em; height: 17px; text-align: center;'>7</td> <td style='box-sizing: border-box; user-select: text; padding: 8px; border: none; width: 2em; height: 17px; text-align: center;'>9</td> <td style='box-sizing: border-box; user-select: text; padding: 8px; border: none; width: 2em; height: 17px; text-align: center;'>11</td> <td style='box-sizing: border-box; user-select: text; padding: 8px; border: none; width: 2em; height: 17px; text-align: center;'>9</td> <td style='box-sizing: border-box; user-select: text; padding: 8px; border: none; width: 1em; height: 17px; text-align: center;'>5</td> <td style='box-sizing: border-box; user-select: text; padding: 8px; border: none; width: 1em; height: 17px; text-align: center;'>5</td> <td style='box-sizing: border-box; user-select: text; padding: 8px; border: none; width: 1em; height: 17px; text-align: center;'>4</td> <td style='box-sizing: border-box; user-select: text; padding: 8px; border: none; width: 1em; height: 17px; text-align: center;'>4</td> <td style='box-sizing: border-box; user-select: text; padding: 8px; border: none; width: 1em; height: 17px; text-align: center;'>3</td> </tr> <tr style='box-sizing: border-box; user-select: text; height: 17px;'> <td style='box-sizing: border-box; user-select: text; padding: 8px; border: none; width: 72px; height: 17px; text-align: center;'>13</td> <td style='box-sizing: border-box; user-select: text; padding: 8px; border: none; width: 104px; height: 17px; text-align: center;'>600,000</td> <td style='box-sizing: border-box; user-select: text; padding: 8px; border: none; width: 95px; height: 17px; text-align: center;'>9d6+4*</td> <td style='box-sizing: border-box; user-select: text; padding: 8px; border: none; width: 3em; height: 17px; text-align: center;'>12 [+7]</td> <td style='box-sizing: border-box; user-select: text; padding: 8px; border: none; width: 2em; height: 17px; text-align: center;'>3</td> <td style='box-sizing: border-box; user-select: text; padding: 8px; border: none; width: 2em; height: 17px; text-align: center;'>5</td> <td style='box-sizing: border-box; user-select: text; padding: 8px; border: none; width: 2em; height: 17px; text-align: center;'>7</td> <td style='box-sizing: border-box; user-select: text; padding: 8px; border: none; width: 2em; height: 17px; text-align: center;'>8</td> <td style='box-sizing: border-box; user-select: text; padding: 8px; border: none; width: 2em; height: 17px; text-align: center;'>7</td> <td style='box-sizing: border-box; user-select: text; padding: 8px; border: none; width: 1em; height: 17px; text-align: center;'>5</td> <td style='box-sizing: border-box; user-select: text; padding: 8px; border: none; width: 1em; height: 17px; text-align: center;'>5</td> <td style='box-sizing: border-box; user-select: text; padding: 8px; border: none; width: 1em; height: 17px; text-align: center;'>5</td> <td style='box-sizing: border-box; user-select: text; padding: 8px; border: none; width: 1em; height: 17px; text-align: center;'>4</td> <td style='box-sizing: border-box; user-select: text; padding: 8px; border: none; width: 1em; height: 17px; text-align: center;'>4</td> </tr> <tr style='box-sizing: border-box; user-select: text; height: 17px;'> <td style='box-sizing: border-box; user-select: text; padding: 8px; border: none; width: 72px; height: 17px; text-align: center;'>14</td> <td style='box-sizing: border-box; user-select: text; padding: 8px; border: none; width: 104px; height: 17px; text-align: center;'>700,000</td> <td style='box-sizing: border-box; user-select: text; padding: 8px; border: none; width: 95px; height: 17px; text-align: center;'>9d6+5*</td> <td style='box-sizing: border-box; user-select: text; padding: 8px; border: none; width: 3em; height: 17px; text-align: center;'>12 [+7]</td> <td style='box-sizing: border-box; user-select: text; padding: 8px; border: none; width: 2em; height: 17px; text-align: center;'>3</td> <td style='box-sizing: border-box; user-select: text; padding: 8px; border: none; width: 2em; height: 17px; text-align: center;'>5</td> <td style='box-sizing: border-box; user-select: text; padding: 8px; border: none; width: 2em; height: 17px; text-align: center;'>7</td> <td style='box-sizing: border-box; user-select: text; padding: 8px; border: none; width: 2em; height: 17px; text-align: center;'>8</td> <td style='box-sizing: border-box; user-select: text; padding: 8px; border: none; width: 2em; height: 17px; text-align: center;'>7</td> <td style='box-sizing: border-box; user-select: text; padding: 8px; border: none; width: 1em; height: 17px; text-align: center;'>6</td> <td style='box-sizing: border-box; user-select: text; padding: 8px; border: none; width: 1em; height: 17px; text-align: center;'>5</td> <td style='box-sizing: border-box; user-select: text; padding: 8px; border: none; width: 1em; height: 17px; text-align: center;'>5</td> <td style='box-sizing: border-box; user-select: text; padding: 8px; border: none; width: 1em; height: 17px; text-align: center;'>5</td> <td style='box-sizing: border-box; user-select: text; padding: 8px; border: none; width: 1em; height: 17px; text-align: center;'>4</td> </tr> </tbody> </table> <p style='box-sizing: border-box; user-select: text; color: #191813;'>* 不再應用體質調整值。</p> <p style='box-sizing: border-box; user-select: text; color: #191813;'><strong style='box-sizing: border-box; user-select: text;'>D:&nbsp;</strong>死亡 / 毒素;&nbsp;<strong style='box-sizing: border-box; user-select: text;'>W:</strong>&nbsp;魔杖&nbsp;<strong style='box-sizing: border-box; user-select: text;'>P:</strong>&nbsp;麻痺 / 石化&nbsp;<strong style='box-sizing: border-box; user-select: text;'>B:</strong>&nbsp;噴吐攻擊&nbsp;<strong style='box-sizing: border-box; user-select: text;'>S:</strong> 法術 / 權杖 / 法杖</p>",
        	"requirements": "牧師"
		},
		"Combat": {
			"name": "戰鬥",
			"description": "<p><span style='color: #191813;'>牧師可以使用所有類型的護甲，但嚴格的神聖教條禁止其使用任何鋒利有刃或是帶有尖端的武器。他們可以使用以下武器：短棒、硬頭鎚、投石索、杖、戰鎚。</span></p>",
        	"requirements": "牧師"
		},
		"Divine Magic": {
			"name": "神聖魔法",
			"description": "<p>神聖魔法的詳細內容見《經典奇幻：魔法》。</p> <p><b>聖徽：</b>牧師必須攜帶一枚聖徽（見第36 頁裝備）。</p> <p><b>神明不悅：</b>牧師必須忠於其陣營、神職身份及宗教的原則。失去神恩的牧師可能會面臨懲罰。</p> <p><b>魔法研究：</b>任何等級的牧師都可以花費時間和金錢進行魔法研究。這讓其得以創造與自己神祇相關的新法術或其他魔法效果。牧師升到 9 級時還能創造魔法物品。</p> <p><b>施法：</b>當牧師證明了自己的信仰（提升至 2 級），該角色就可以通過祈禱來獲得法術。牧師的法術威力與可用次數都由角色的經驗等級決定。牧師可用的法術列表見《經典奇幻：魔法》。</p> <p><b>使用魔法物品：</b>牧師作為施法者可以使用法術屬於自身法術列表內的魔法捲軸，而且其還可以使用僅限神術施法者的物品（譬如某些法杖）。</p>",
        	"requirements": "牧師"
		},
		"Turning the Undead": {
			"name": "驅散亡靈",
			"description": "<p style='box-sizing: border-box; user-select: text; color: #191813;'>牧師可以呼喚神明的力量來驅散遭遇的亡靈怪物。要驅散亡靈，玩家投[[/r 2d6 # 驅散不死]]。接著裁判參考後頁的表格，用投骰結果對抗目標所屬的亡靈怪物種類的 HD。</p> <h3 style='box-sizing: border-box; user-select: text; color: #191813;'><span id='Successful_Turning' class='mw-headline' style='box-sizing: border-box; user-select: text;'>成功驅散</span></h3> <p style='box-sizing: border-box; user-select: text; color: #191813;'>如果驅散獲得成功，那麼玩家需要再投[[/r 2d6 # 驅散不死:影響HD數量]]來決定受到影響的 HD 數量（被驅散或摧毀）。</p> <p style='box-sizing: border-box; user-select: text; color: #191813;'><strong style='box-sizing: border-box; user-select: text;'>驅散的亡靈生物:</strong>&nbsp;如果可能，將離開該區域，並且不會傷害或接觸牧師。</p> <p style='box-sizing: border-box; user-select: text; color: #191813;'><strong style='box-sizing: border-box; user-select: text;'>摧毀亡靈生物（結果為 D）:</strong>&nbsp;立刻被永久毀滅。</p> <p style='box-sizing: border-box; user-select: text; color: #191813;'><strong style='box-sizing: border-box; user-select: text;'>溢出:</strong>&nbsp;不足以影響單個額外怪物的 HD會被忽略。</p> <p style='box-sizing: border-box; user-select: text; color: #191813;'><strong style='box-sizing: border-box; user-select: text;'>最低效力:</strong>&nbsp;如果驅散成功，總是至少會有一個亡靈生物受到影響。</p> <p style='box-sizing: border-box; user-select: text; color: #191813;'><strong style='box-sizing: border-box; user-select: text;'>混合團體:</strong>&nbsp;如果對一群由不同種類亡靈怪物混合而成的團體使用驅散亡靈，HD 更低的對象會優先受到影響。</p> <table style='height: 464px; width: 100%; border-color: #000000;' border='1px' cellpadding='8px'><caption> <h3><span id='Turning_the_Undead_2'>驅散不死</span></h3> </caption> <thead> <tr style='height: 33px; text-align: center;'> <td style='box-sizing: border-box; user-select: text; padding: 8px; border: none; height: 33px; width: 16.5%;' scope='col'><strong style='box-sizing: border-box; user-select: text;'>&nbsp;</strong></td> <td style='box-sizing: border-box; user-select: text; padding: 8px; border: none; text-align: center; height: 33px; width: 83.25%;' colspan='8' scope='col'><strong>怪物種類&dagger;</strong><strong style='box-sizing: border-box; user-select: text;'>的生命骰<br></strong></td> </tr> <tr style='box-sizing: border-box; user-select: text; height: 33px;'> <td style='box-sizing: border-box; user-select: text; padding: 8px; border: none; height: 33px; width: 16.5%;' scope='col'><strong style='box-sizing: border-box; user-select: text;'>等級</strong></td> <td style='box-sizing: border-box; user-select: text; padding: 8px; border: none; height: 33px; width: 8.75%;' scope='col'><strong style='box-sizing: border-box; user-select: text;'>1</strong></td> <td style='box-sizing: border-box; user-select: text; padding: 8px; border: none; height: 33px; width: 8.75%;' scope='col'><strong style='box-sizing: border-box; user-select: text;'>2</strong></td> <td style='box-sizing: border-box; user-select: text; padding: 8px; border: none; height: 33px; width: 10.5%;' scope='col'><strong style='box-sizing: border-box; user-select: text;'>2*</strong></td> <td style='box-sizing: border-box; user-select: text; padding: 8px; border: none; height: 33px; width: 10.5%;' scope='col'><strong style='box-sizing: border-box; user-select: text;'>3</strong></td> <td style='box-sizing: border-box; user-select: text; padding: 8px; border: none; height: 33px; width: 10.5%;' scope='col'><strong style='box-sizing: border-box; user-select: text;'>4</strong></td> <td style='box-sizing: border-box; user-select: text; padding: 8px; border: none; height: 33px; width: 10.5%;' scope='col'><strong style='box-sizing: border-box; user-select: text;'>5</strong></td> <td style='box-sizing: border-box; user-select: text; padding: 8px; border: none; height: 33px; width: 10.75%;' scope='col'><strong style='box-sizing: border-box; user-select: text;'>6</strong></td> <td style='box-sizing: border-box; user-select: text; padding: 8px; border: none; height: 33px; width: 13%;' scope='col'><strong style='box-sizing: border-box; user-select: text;'>7-9</strong></td> </tr> </thead> <tbody style='box-sizing: border-box; user-select: text;'> <tr style='box-sizing: border-box; user-select: text; height: 34px;'> <td style='box-sizing: border-box; user-select: text; padding: 8px; border: none; height: 34px; width: 16.5%;'>1</td> <td style='box-sizing: border-box; user-select: text; padding: 8px; border: none; height: 34px; width: 8.75%;'>7</td> <td style='box-sizing: border-box; user-select: text; padding: 8px; border: none; height: 34px; width: 8.75%;'>9</td> <td style='box-sizing: border-box; user-select: text; padding: 8px; border: none; height: 34px; width: 10.5%;'>11</td> <td style='box-sizing: border-box; user-select: text; padding: 8px; border: none; height: 34px; width: 10.5%;'>&ndash;</td> <td style='box-sizing: border-box; user-select: text; padding: 8px; border: none; height: 34px; width: 10.5%;'>&ndash;</td> <td style='box-sizing: border-box; user-select: text; padding: 8px; border: none; height: 34px; width: 10.5%;'>&ndash;</td> <td style='box-sizing: border-box; user-select: text; padding: 8px; border: none; height: 34px; width: 10.75%;'>&ndash;</td> <td style='box-sizing: border-box; user-select: text; padding: 8px; border: none; height: 34px; width: 13%;'>&ndash;</td> </tr> <tr style='box-sizing: border-box; user-select: text; height: 33px;'> <td style='box-sizing: border-box; user-select: text; padding: 8px; border: none; height: 33px; width: 16.5%;'>2</td> <td style='box-sizing: border-box; user-select: text; padding: 8px; border: none; height: 33px; width: 8.75%;'>T</td> <td style='box-sizing: border-box; user-select: text; padding: 8px; border: none; height: 33px; width: 8.75%;'>7</td> <td style='box-sizing: border-box; user-select: text; padding: 8px; border: none; height: 33px; width: 10.5%;'>9</td> <td style='box-sizing: border-box; user-select: text; padding: 8px; border: none; height: 33px; width: 10.5%;'>11</td> <td style='box-sizing: border-box; user-select: text; padding: 8px; border: none; height: 33px; width: 10.5%;'>&ndash;</td> <td style='box-sizing: border-box; user-select: text; padding: 8px; border: none; height: 33px; width: 10.5%;'>&ndash;</td> <td style='box-sizing: border-box; user-select: text; padding: 8px; border: none; height: 33px; width: 10.75%;'>&ndash;</td> <td style='box-sizing: border-box; user-select: text; padding: 8px; border: none; height: 33px; width: 13%;'>&ndash;</td> </tr> <tr style='box-sizing: border-box; user-select: text; height: 33px;'> <td style='box-sizing: border-box; user-select: text; padding: 8px; border: none; height: 33px; width: 16.5%;'>3</td> <td style='box-sizing: border-box; user-select: text; padding: 8px; border: none; height: 33px; width: 8.75%;'>T</td> <td style='box-sizing: border-box; user-select: text; padding: 8px; border: none; height: 33px; width: 8.75%;'>T</td> <td style='box-sizing: border-box; user-select: text; padding: 8px; border: none; height: 33px; width: 10.5%;'>7</td> <td style='box-sizing: border-box; user-select: text; padding: 8px; border: none; height: 33px; width: 10.5%;'>9</td> <td style='box-sizing: border-box; user-select: text; padding: 8px; border: none; height: 33px; width: 10.5%;'>11</td> <td style='box-sizing: border-box; user-select: text; padding: 8px; border: none; height: 33px; width: 10.5%;'>&ndash;</td> <td style='box-sizing: border-box; user-select: text; padding: 8px; border: none; height: 33px; width: 10.75%;'>&ndash;</td> <td style='box-sizing: border-box; user-select: text; padding: 8px; border: none; height: 33px; width: 13%;'>&ndash;</td> </tr> <tr style='box-sizing: border-box; user-select: text; height: 33px;'> <td style='box-sizing: border-box; user-select: text; padding: 8px; border: none; height: 33px; width: 16.5%;'>4</td> <td style='box-sizing: border-box; user-select: text; padding: 8px; border: none; height: 33px; width: 8.75%;'>D</td> <td style='box-sizing: border-box; user-select: text; padding: 8px; border: none; height: 33px; width: 8.75%;'>T</td> <td style='box-sizing: border-box; user-select: text; padding: 8px; border: none; height: 33px; width: 10.5%;'>T</td> <td style='box-sizing: border-box; user-select: text; padding: 8px; border: none; height: 33px; width: 10.5%;'>7</td> <td style='box-sizing: border-box; user-select: text; padding: 8px; border: none; height: 33px; width: 10.5%;'>9</td> <td style='box-sizing: border-box; user-select: text; padding: 8px; border: none; height: 33px; width: 10.5%;'>11</td> <td style='box-sizing: border-box; user-select: text; padding: 8px; border: none; height: 33px; width: 10.75%;'>&ndash;</td> <td style='box-sizing: border-box; user-select: text; padding: 8px; border: none; height: 33px; width: 13%;'>&ndash;</td> </tr> <tr style='box-sizing: border-box; user-select: text; height: 33px;'> <td style='box-sizing: border-box; user-select: text; padding: 8px; border: none; height: 33px; width: 16.5%;'>5</td> <td style='box-sizing: border-box; user-select: text; padding: 8px; border: none; height: 33px; width: 8.75%;'>D</td> <td style='box-sizing: border-box; user-select: text; padding: 8px; border: none; height: 33px; width: 8.75%;'>D</td> <td style='box-sizing: border-box; user-select: text; padding: 8px; border: none; height: 33px; width: 10.5%;'>T</td> <td style='box-sizing: border-box; user-select: text; padding: 8px; border: none; height: 33px; width: 10.5%;'>T</td> <td style='box-sizing: border-box; user-select: text; padding: 8px; border: none; height: 33px; width: 10.5%;'>7</td> <td style='box-sizing: border-box; user-select: text; padding: 8px; border: none; height: 33px; width: 10.5%;'>9</td> <td style='box-sizing: border-box; user-select: text; padding: 8px; border: none; height: 33px; width: 10.75%;'>11</td> <td style='box-sizing: border-box; user-select: text; padding: 8px; border: none; height: 33px; width: 13%;'>&ndash;</td> </tr> <tr style='box-sizing: border-box; user-select: text; height: 33px;'> <td style='box-sizing: border-box; user-select: text; padding: 8px; border: none; height: 33px; width: 16.5%;'>6</td> <td style='box-sizing: border-box; user-select: text; padding: 8px; border: none; height: 33px; width: 8.75%;'>D</td> <td style='box-sizing: border-box; user-select: text; padding: 8px; border: none; height: 33px; width: 8.75%;'>D</td> <td style='box-sizing: border-box; user-select: text; padding: 8px; border: none; height: 33px; width: 10.5%;'>D</td> <td style='box-sizing: border-box; user-select: text; padding: 8px; border: none; height: 33px; width: 10.5%;'>T</td> <td style='box-sizing: border-box; user-select: text; padding: 8px; border: none; height: 33px; width: 10.5%;'>T</td> <td style='box-sizing: border-box; user-select: text; padding: 8px; border: none; height: 33px; width: 10.5%;'>7</td> <td style='box-sizing: border-box; user-select: text; padding: 8px; border: none; height: 33px; width: 10.75%;'>9</td> <td style='box-sizing: border-box; user-select: text; padding: 8px; border: none; height: 33px; width: 13%;'>11</td> </tr> <tr style='box-sizing: border-box; user-select: text; height: 33px;'> <td style='box-sizing: border-box; user-select: text; padding: 8px; border: none; height: 33px; width: 16.5%;'>7</td> <td style='box-sizing: border-box; user-select: text; padding: 8px; border: none; height: 33px; width: 8.75%;'>D</td> <td style='box-sizing: border-box; user-select: text; padding: 8px; border: none; height: 33px; width: 8.75%;'>D</td> <td style='box-sizing: border-box; user-select: text; padding: 8px; border: none; height: 33px; width: 10.5%;'>D</td> <td style='box-sizing: border-box; user-select: text; padding: 8px; border: none; height: 33px; width: 10.5%;'>D</td> <td style='box-sizing: border-box; user-select: text; padding: 8px; border: none; height: 33px; width: 10.5%;'>T</td> <td style='box-sizing: border-box; user-select: text; padding: 8px; border: none; height: 33px; width: 10.5%;'>T</td> <td style='box-sizing: border-box; user-select: text; padding: 8px; border: none; height: 33px; width: 10.75%;'>7</td> <td style='box-sizing: border-box; user-select: text; padding: 8px; border: none; height: 33px; width: 13%;'>9</td> </tr> <tr style='box-sizing: border-box; user-select: text; height: 33px;'> <td style='box-sizing: border-box; user-select: text; padding: 8px; border: none; height: 33px; width: 16.5%;'>8</td> <td style='box-sizing: border-box; user-select: text; padding: 8px; border: none; height: 33px; width: 8.75%;'>D</td> <td style='box-sizing: border-box; user-select: text; padding: 8px; border: none; height: 33px; width: 8.75%;'>D</td> <td style='box-sizing: border-box; user-select: text; padding: 8px; border: none; height: 33px; width: 10.5%;'>D</td> <td style='box-sizing: border-box; user-select: text; padding: 8px; border: none; height: 33px; width: 10.5%;'>D</td> <td style='box-sizing: border-box; user-select: text; padding: 8px; border: none; height: 33px; width: 10.5%;'>D</td> <td style='box-sizing: border-box; user-select: text; padding: 8px; border: none; height: 33px; width: 10.5%;'>T</td> <td style='box-sizing: border-box; user-select: text; padding: 8px; border: none; height: 33px; width: 10.75%;'>T</td> <td style='box-sizing: border-box; user-select: text; padding: 8px; border: none; height: 33px; width: 13%;'>7</td> </tr> <tr style='box-sizing: border-box; user-select: text; height: 33px;'> <td style='box-sizing: border-box; user-select: text; padding: 8px; border: none; height: 33px; width: 16.5%;'>9</td> <td style='box-sizing: border-box; user-select: text; padding: 8px; border: none; height: 33px; width: 8.75%;'>D</td> <td style='box-sizing: border-box; user-select: text; padding: 8px; border: none; height: 33px; width: 8.75%;'>D</td> <td style='box-sizing: border-box; user-select: text; padding: 8px; border: none; height: 33px; width: 10.5%;'>D</td> <td style='box-sizing: border-box; user-select: text; padding: 8px; border: none; height: 33px; width: 10.5%;'>D</td> <td style='box-sizing: border-box; user-select: text; padding: 8px; border: none; height: 33px; width: 10.5%;'>D</td> <td style='box-sizing: border-box; user-select: text; padding: 8px; border: none; height: 33px; width: 10.5%;'>D</td> <td style='box-sizing: border-box; user-select: text; padding: 8px; border: none; height: 33px; width: 10.75%;'>T</td> <td style='box-sizing: border-box; user-select: text; padding: 8px; border: none; height: 33px; width: 13%;'>T</td> </tr> <tr style='box-sizing: border-box; user-select: text; height: 33px;'> <td style='box-sizing: border-box; user-select: text; padding: 8px; border: none; height: 33px; width: 16.5%;'>10</td> <td style='box-sizing: border-box; user-select: text; padding: 8px; border: none; height: 33px; width: 8.75%;'>D</td> <td style='box-sizing: border-box; user-select: text; padding: 8px; border: none; height: 33px; width: 8.75%;'>D</td> <td style='box-sizing: border-box; user-select: text; padding: 8px; border: none; height: 33px; width: 10.5%;'>D</td> <td style='box-sizing: border-box; user-select: text; padding: 8px; border: none; height: 33px; width: 10.5%;'>D</td> <td style='box-sizing: border-box; user-select: text; padding: 8px; border: none; height: 33px; width: 10.5%;'>D</td> <td style='box-sizing: border-box; user-select: text; padding: 8px; border: none; height: 33px; width: 10.5%;'>D</td> <td style='box-sizing: border-box; user-select: text; padding: 8px; border: none; height: 33px; width: 10.75%;'>D</td> <td style='box-sizing: border-box; user-select: text; padding: 8px; border: none; height: 33px; width: 13%;'>T</td> </tr> <tr style='box-sizing: border-box; user-select: text; height: 33px;'> <td style='box-sizing: border-box; user-select: text; padding: 8px; border: none; height: 33px; width: 16.5%;'>11+</td> <td style='box-sizing: border-box; user-select: text; padding: 8px; border: none; height: 33px; width: 8.75%;'>D</td> <td style='box-sizing: border-box; user-select: text; padding: 8px; border: none; height: 33px; width: 8.75%;'>D</td> <td style='box-sizing: border-box; user-select: text; padding: 8px; border: none; height: 33px; width: 10.5%;'>D</td> <td style='box-sizing: border-box; user-select: text; padding: 8px; border: none; height: 33px; width: 10.5%;'>D</td> <td style='box-sizing: border-box; user-select: text; padding: 8px; border: none; height: 33px; width: 10.5%;'>D</td> <td style='box-sizing: border-box; user-select: text; padding: 8px; border: none; height: 33px; width: 10.5%;'>D</td> <td style='box-sizing: border-box; user-select: text; padding: 8px; border: none; height: 33px; width: 10.75%;'>D</td> <td style='box-sizing: border-box; user-select: text; padding: 8px; border: none; height: 33px; width: 13%;'>D</td> </tr> </tbody> </table> <p style='box-sizing: border-box; user-select: text; color: #191813;'>* 帶有特殊能力的 2 HD 怪物（怪物描述中的HD 會以星號標記）。</p> <p style='box-sizing: border-box; user-select: text; color: #191813;'>&dagger; 裁判酌情判斷，可以擴展此表格來囊括更加強大的亡靈怪物。</p> <h2 style='box-sizing: border-box; user-select: text; color: #191813;'><span id='Turning_Table_Results' class='mw-headline' style='box-sizing: border-box; user-select: text;'>驅散表格結果</span></h2> <p style='box-sizing: border-box; user-select: text; color: #191813;'>&ndash;<strong style='box-sizing: border-box; user-select: text;'>:</strong>&nbsp;驅散失敗</p> <p style='box-sizing: border-box; user-select: text; color: #191813;'><strong style='box-sizing: border-box; user-select: text;'>數字:</strong>&nbsp;如果 2d6 的投骰高於或等於該數字，驅散成功。</p> <p style='box-sizing: border-box; user-select: text; color: #191813;'><strong style='box-sizing: border-box; user-select: text;'>T:</strong>&nbsp;驅散成功。</p> <p style='box-sizing: border-box; user-select: text; color: #191813;'><strong style='box-sizing: border-box; user-select: text;'>D:</strong>&nbsp;驅散成功，怪物並非只是逃離，而是遭到摧毀。</p>",
        	"requirements": "牧師"
		}
	}
}